Introduction to R, RStudio and the tidyverse
…
.pull-left[

```r
select(air_pol, REG_ID:TL)
#> Error in select(air_pol, REG_ID:TL): object 'air_pol' not found
```
]

.pull-right[

```r

select(air_pol, REG_ID, 
       starts_with("T"))
#> # A tibble: 9,480 x 3
#>    REG_ID TIME  TL   
#>    <chr>  <chr> <chr>
#>  1 AUS    2003  1    
#>  2 AUS    2006  1    
#>  3 AUS    2009  1    
#>  4 AUS    2012  1    
#>  5 AU1    2003  2    
#>  6 AU1    2006  2    
#>  7 AU1    2009  2    
#>  8 AU1    2012  2    
#>  9 AU2    2003  2    
#> 10 AU2    2006  2    
#> # ... with 9,470 more rows
…
- To update existing columns

- Create new ones

]

.panel[.panel-name[Example]

```r
mutate(
  air_pol, 
  ObsValue = as.numeric(ObsValue), # columns where originally character
  pm_rounded = round(ObsValue, 2)  # new column, at the end
  )
#> # A tibble: 9,480 x 9
#>    OBS_STATUS ObsValue POS   POWERCODE REG_ID TIME  TL    VAR     pm_rounded
#>    <chr>         <dbl> <chr> <chr>     <chr>  <chr> <chr> <chr>        <dbl>
#>  1 <NA>           3.88 ALL   0         AUS    2003  1     AIR_POL       3.88
#>  2 <NA>           3.30 ALL   0         AUS    2006  1     AIR_POL       3.3 
#>  3 <NA>           3.59 ALL   0         AUS    2009  1     AIR_POL       3.59
#>  4 <NA>           7    ALL   0         AUS    2012  1     AIR_POL       7   
#>  5 <NA>           4.74 ALL   0         AU1    2003  2     AIR_POL       4.74
#>  6 <NA>           3.28 ALL   0         AU1    2006  2     AIR_POL       3.28
#>  7 <NA>           3.44 ALL   0         AU1    2009  2     AIR_POL       3.44
#>  8 <NA>           7.08 ALL   0         AU1    2012  2     AIR_POL       7.08
#>  9 <NA>           4.32 ALL   0         AU2    2003  2     AIR_POL       4.32
#> 10 <NA>           4.14 ALL   0         AU2    2006  2     AIR_POL       4.14
#> # ... with 9,470 more rows
```
…
<br/>

`group_by()` is used to perform operations by groups. It alters the default behaviour of:

- `filter()`
- `mutate()`
- `summarise()`
]

.panel[.panel-name[Example]

```r
air_pol_grouped <- group_by(air_pol, REG_ID, TL)
air_pol_grouped
#> # A tibble: 9,480 x 8
#> # Groups:   REG_ID, TL [710]
#>    OBS_STATUS ObsValue POS   POWERCODE REG_ID TIME  TL    VAR    
#>    <chr>      <chr>    <chr> <chr>     <chr>  <chr> <chr> <chr>  
#>  1 <NA>       3.88     ALL   0         AUS    2003  1     AIR_POL
#>  2 <NA>       3.301    ALL   0         AUS    2006  1     AIR_POL
#>  3 <NA>       3.594    ALL   0         AUS    2009  1     AIR_POL
#>  4 <NA>       7        ALL   0         AUS    2012  1     AIR_POL
#>  5 <NA>       4.744    ALL   0         AU1    2003  2     AIR_POL
#>  6 <NA>       3.277    ALL   0         AU1    2006  2     AIR_POL
#>  7 <NA>       3.443    ALL   0         AU1    2009  2     AIR_POL
#>  8 <NA>       7.08     ALL   0         AU1    2012  2     AIR_POL
#>  9 <NA>       4.315    ALL   0         AU2    2003  2     AIR_POL
#> 10 <NA>       4.142    ALL   0         AU2    2006  2     AIR_POL
#> # ... with 9,470 more rows
```

]

.panel[.panel-name[with `filter()`]

```r
filter(air_pol_grouped, ObsValue == max(ObsValue))
#> # A tibble: 719 x 8
#> # Groups:   REG_ID, TL [710]
#>    OBS_STATUS ObsValue POS   POWERCODE REG_ID TIME  TL    VAR    
#>    <chr>      <chr>    <chr> <chr>     <chr>  <chr> <chr> <chr>  
#>  1 <NA>       22.492   ALL   0         AT11   2003  2     AIR_POL
#>  2 <NA>       20.003   ALL   0         AT21   2006  2     AIR_POL
#>  3 <NA>       9.91     ALL   0         CAN    2003  1     AIR_POL
#>  4 <NA>       7.772    ALL   0         ME18   2006  2     AIR_POL
#>  5 <NA>       9.061    ALL   0         ME20   2003  2     AIR_POL
#>  6 <NA>       5.591    ALL   0         ME23   2003  2     AIR_POL
#>  7 <NA>       7.386    ALL   0         ME25   2006  2     AIR_POL
#>  8 <NA>       6.968    ALL   0         ME26   2009  2     AIR_POL
#>  9 <NA>       9.459    ALL   0         ME27   2009  2     AIR_POL
#> 10 <NA>       9.695    ALL   0         ME28   2006  2     AIR_POL
#> # ... with 709 more rows
```

]

.panel[.panel-name[with `mutate()`]

```r
mutate(air_pol_grouped, ObsValue = max(ObsValue))
#> # A tibble: 9,480 x 8
#> # Groups:   REG_ID, TL [710]
#>    OBS_STATUS ObsValue POS   POWERCODE REG_ID TIME  TL    VAR    
#>    <chr>      <chr>    <chr> <chr>     <chr>  <chr> <chr> <chr>  
#>  1 <NA>       7.62     ALL   0         AUS    2003  1     AIR_POL
#>  2 <NA>       7.62     ALL   0         AUS    2006  1     AIR_POL
#>  3 <NA>       7.62     ALL   0         AUS    2009  1     AIR_POL
#>  4 <NA>       7.62     ALL   0         AUS    2012  1     AIR_POL
#>  5 <NA>       7.5      ALL   0         AU1    2003  2     AIR_POL
#>  6 <NA>       7.5      ALL   0         AU1    2006  2     AIR_POL
#>  7 <NA>       7.5      ALL   0         AU1    2009  2     AIR_POL
#>  8 <NA>       7.5      ALL   0         AU1    2012  2     AIR_POL
#>  9 <NA>       8.52     ALL   0         AU2    2003  2     AIR_POL
#> 10 <NA>       8.52     ALL   0         AU2    2006  2     AIR_POL
#> # ... with 9,470 more rows
```

]

.panel[.panel-name[with `summarise()`]

```r
summarise(air_pol_grouped, ObsValue = max(ObsValue))
#> `summarise()` has grouped output by 'REG_ID'. You can override using the `.groups` argument.
#> # A tibble: 710 x 3
#> # Groups:   REG_ID [710]
#>    REG_ID TL    ObsValue
#>    <chr>  <chr> <chr>   
#>  1 AT11   2     22.492  
#>  2 AT12   2     21.71   
#>  3 AT13   2     25.36   
#>  4 AT21   2     20.003  
#>  5 AT22   2     22.55   
#>  6 AT31   2     21.36   
#>  7 AT32   2     19.31   
#>  8 AT33   2     9.67    
#>  9 AT34   2     9.84    
#> 10 AU1    2     7.5     
#> # ... with 700 more rows
```

]

.panel[.panel-name[`ungroup()`]

It's good practice to ungroup the data once you no longer need the grouping.

```r
ungroup(air_pol_grouped)
#> # A tibble: 9,480 x 8
#>    OBS_STATUS ObsValue POS   POWERCODE REG_ID TIME  TL    VAR    
#>    <chr>      <chr>    <chr> <chr>     <chr>  <chr> <chr> <chr>  
#>  1 <NA>       3.88     ALL   0         AUS    2003  1     AIR_POL
#>  2 <NA>       3.301    ALL   0         AUS    2006  1     AIR_POL
#>  3 <NA>       3.594    ALL   0         AUS    2009  1     AIR_POL
#>  4 <NA>       7        ALL   0         AUS    2012  1     AIR_POL
#>  5 <NA>       4.744    ALL   0         AU1    2003  2     AIR_POL
#>  6 <NA>       3.277    ALL   0         AU1    2006  2     AIR_POL
#>  7 <NA>       3.443    ALL   0         AU1    2009  2     AIR_POL
#>  8 <NA>       7.08     ALL   0         AU1    2012  2     AIR_POL
#>  9 <NA>       4.315    ALL   0         AU2    2003  2     AIR_POL
#> 10 <NA>       4.142    ALL   0         AU2    2006  2     AIR_POL
#> # ... with 9,470 more rows
```
…
