Data visualisation with ggplot2
…
---
# The gapminder data

In full format, it has 1704 rows and 6 columns.

The first two columns are of type _factor_. This is useful for plotting.

```r
gapminder
#> # A tibble: 1,704 x 6
#>    country     continent  year lifeExp      pop gdpPercap
#>    <fct>       <fct>     <int>   <dbl>    <int>     <dbl>
#>  1 Afghanistan Asia       1952    28.8  8425333      779.
#>  2 Afghanistan Asia       1957    30.3  9240934      821.
#>  3 Afghanistan Asia       1962    32.0 10267083      853.
#>  4 Afghanistan Asia       1967    34.0 11537966      836.
#>  5 Afghanistan Asia       1972    36.1 13079460      740.
#>  6 Afghanistan Asia       1977    38.4 14880372      786.
#>  7 Afghanistan Asia       1982    39.9 12881816      978.
#>  8 Afghanistan Asia       1987    40.8 13867957      852.
#>  9 Afghanistan Asia       1992    41.7 16317921      649.
#> 10 Afghanistan Asia       1997    41.8 22227415      635.
#> # ... with 1,694 more rows
```
…
.right[Source: [R for Data Science](https://r4ds.had.co.nz/tidy-data.html)]

---
# Pivoting from long to wide

```r
gapminder_long
#> # A tibble: 5,112 x 5
#>    country     continent  year indicator      value
#>    <fct>       <fct>     <int> <chr>          <dbl>
#>  1 Afghanistan Asia       1952 lifeExp         28.8
#>  2 Afghanistan Asia       1952 pop        8425333  
#>  3 Afghanistan Asia       1952 gdpPercap      779. 
#>  4 Afghanistan Asia       1957 lifeExp         30.3
#>  5 Afghanistan Asia       1957 pop        9240934  
#>  6 Afghanistan Asia       1957 gdpPercap      821. 
#>  7 Afghanistan Asia       1962 lifeExp         32.0
#>  8 Afghanistan Asia       1962 pop       10267083  
#>  9 Afghanistan Asia       1962 gdpPercap      853. 
#> 10 Afghanistan Asia       1967 lifeExp         34.0
#> # ... with 5,102 more rows
```
…
# Pivoting from long to wide

`pivot_wider()` has two main arguments:

- `names_from`: The name of the column from the long table that will be used to create new columns to form a wider table.
- `values_from`: The name of the column from the long table that will be used to fill the contents of the new columns in the wider table.

```r
gapminder_long %>% 
  pivot_wider(names_from = indicator, values_from = value)
#> # A tibble: 1,704 x 6
#>    country     continent  year lifeExp      pop gdpPercap
#>    <fct>       <fct>     <int>   <dbl>    <dbl>     <dbl>
#>  1 Afghanistan Asia       1952    28.8  8425333      779.
#>  2 Afghanistan Asia       1957    30.3  9240934      821.
#>  3 Afghanistan Asia       1962    32.0 10267083      853.
#>  4 Afghanistan Asia       1967    34.0 11537966      836.
#>  5 Afghanistan Asia       1972    36.1 13079460      740.
#>  6 Afghanistan Asia       1977    38.4 14880372      786.
#>  7 Afghanistan Asia       1982    39.9 12881816      978.
#>  8 Afghanistan Asia       1987    40.8 13867957      852.
#>  9 Afghanistan Asia       1992    41.7 16317921      649.
#> 10 Afghanistan Asia       1997    41.8 22227415      635.
#> # ... with 1,694 more rows
```
…
# 📝&nbsp; From long to wide

1. Open today's [RStudio Cloud project](https://rstudio.cloud/project/2907237)
1. Open the `pivot.R` script, run the code from the slides above and answer the different questions.

02:00

---
# Pivoting from wide to long

```r
gapminder_wide
#> # A tibble: 142 x 14
#>    country     continent `1952` `1957` `1962` `1967` `1972` `1977` `1982` `1987` `1992`
#>    <fct>       <fct>      <dbl>  <dbl>  <dbl>  <dbl>  <dbl>  <dbl>  <dbl>  <dbl>  <dbl>
#>  1 Afghanistan Asia        28.8   30.3   32.0   34.0   36.1   38.4   39.9   40.8   41.7
#>  2 Albania     Europe      55.2   59.3   64.8   66.2   67.7   68.9   70.4   72     71.6
#>  3 Algeria     Africa      43.1   45.7   48.3   51.4   54.5   58.0   61.4   65.8   67.7
#>  4 Angola      Africa      30.0   32.0   34     36.0   37.9   39.5   39.9   39.9   40.6
#>  5 Argentina   Americas    62.5   64.4   65.1   65.6   67.1   68.5   69.9   70.8   71.9
#>  6 Australia   Oceania     69.1   70.3   70.9   71.1   71.9   73.5   74.7   76.3   77.6
#>  7 Austria     Europe      66.8   67.5   69.5   70.1   70.6   72.2   73.2   74.9   76.0
#>  8 Bahrain     Asia        50.9   53.8   56.9   59.9   63.3   65.6   69.1   70.8   72.6
#>  9 Bangladesh  Asia        37.5   39.3   41.2   43.5   45.3   46.9   50.0   52.8   56.0
#> 10 Belgium     Europe      68     69.2   70.2   70.9   71.4   72.8   73.9   75.4   76.5
#> # ... with 132 more rows, and 3 more variables: 1997 <dbl>, 2002 <dbl>, 2007 <dbl>
```
…
]

.pull-right[

```r
gapminder_wide %>%
  pivot_longer(
    cols = `1952`:`2007`,
    names_to = "year",
    values_to = "lifeExp"
  )
#> # A tibble: 1,704 x 4
#>    country     continent year  lifeExp
#>    <fct>       <fct>     <chr>   <dbl>
#>  1 Afghanistan Asia      1952     28.8
#>  2 Afghanistan Asia      1957     30.3
#>  3 Afghanistan Asia      1962     32.0
#>  4 Afghanistan Asia      1967     34.0
#>  5 Afghanistan Asia      1972     36.1
#>  6 Afghanistan Asia      1977     38.4
#>  7 Afghanistan Asia      1982     39.9
#>  8 Afghanistan Asia      1987     40.8
#>  9 Afghanistan Asia      1992     41.7
#> 10 Afghanistan Asia      1997     41.8
#> # ... with 1,694 more rows
```
…
